openfpga_flow/tasks/SOFA_tasks/and2_latch_rst/vpr_arch/and2_latch/MIN_ROUTE_CHAN_WIDTH/and2_latch_formal.vcd
$date
	Wed Apr  5 15:53:41 2023
$end
$version
	Icarus Verilog
$end
$timescale
	1ps
$end
$scope module and2_latch_autocheck_top_tb $end
$var wire 1 ! __op_clock__ $end
$var wire 1 " __prog_clock__ $end
$var wire 1 # clk $end
$var wire 1 $ isol_n $end
$var wire 1 % prog_clk $end
$var wire 1 & prog_reset $end
$var wire 1 ' reset $end
$var wire 1 ( test_enable $end
$var wire 128 ) gfpga_pad_io_soc_out [0:127] $end
$var wire 128 * gfpga_pad_io_soc_in [0:127] $end
$var wire 128 + gfpga_pad_io_soc_dir [0:127] $end
$var wire 1 , d_fpga $end
$var wire 1 - d_benchmark $end
$var wire 1 . ccff_tail $end
$var wire 1 / c_fpga $end
$var wire 1 0 c_benchmark $end
$var reg 1 1 __config_done__ $end
$var reg 1 2 __greset__ $end
$var reg 1 3 __gset__ $end
$var reg 1 4 __op_clock___reg__ $end
$var reg 1 5 __prog_clock___reg__ $end
$var reg 1 6 __prog_reset__ $end
$var reg 1 7 __prog_set_ $end
$var reg 1 8 a_shared_input $end
$var reg 1 9 b_shared_input $end
$var reg 17 : bit_index [16:0] $end
$var reg 1 ; c_flag $end
$var reg 1 < ccff_head $end
$var reg 1 = d_flag $end
$var reg 17 > ibit [16:0] $end
$var reg 1 ? rst_shared_input $end
$var reg 1 @ sim_start $end
$var reg 1 A skip_bits $end
$var integer 32 B nb_error [31:0] $end
$upscope $end
$enddefinitions $end
#0
$dumpvars
b1 B
0A
1@
0?
b1000110000110001 >
0=
0<
0;
b0 :
19
08
17
16
05
04
03
12
01
00
x/
x.
x-
x,
bx +
b100000000000000000000000000000000000000000000000000000000000000000000000000000000000000 *
bx )
0(
0'
0&
0%
1$
0#
0"
0!
$end
#1000
1,
1/
b11000001101110100011110111100000100000001101101101111000111011100101110011000011001101111110111000001101011111000000011000101110 )
b0 +
0.
#5000
15
#10000
b1 :
1&
05
07
06
#15000
1%
1"
15
#20000
b10 :
0%
0"
05
#25000
1%
1"
15
#30000
b11 :
0%
0"
05
#35000
1%
1"
15
#40000
b100 :
0%
0"
05
#45000
1%
1"
15
#50000
b101 :
0%
0"
05
#55000
1%
1"
15
#60000
b110 :
0%
0"
05
#65000
1%
1"
15
#70000
b111 :
0%
0"
05
#75000
1%
1"
15
#80000
b1000 :
0%
0"
05
#85000
1%
1"
15
#90000
b1001 :
0%
0"
05
#95000
1%
1"
15
#100000
b1010 :
0%
0"
05
#105000
1%
1"
15
#110000
b1011 :
0%
0"
05
#115000
1%
1"
15
#120000
b1100 :
0%
0"
05
#125000
1%
1"
15
#130000
b1101 :
0%
0"
05
#135000
1%
1"
15
#140000
b1110 :
0%
0"
05
#145000
1%
1"
15
#150000
b1111 :
0%
0"
05
#155000
1%
1"
15
#160000
b10000 :
0%
0"
05
#165000
1%
1"
15
#170000
b10001 :
0%
0"
05
#175000
1%
1"
15
#180000
b10010 :
0%
0"
05
#185000
1%
1"
15
#190000
b10011 :
0%
0"
05
#195000
1%
1"
15
#200000
b10100 :
0%
0"
05
#205000
1%
1"
15
#210000
b10101 :
0%
0"
05
#215000
1%
1"
15
#220000
b10110 :
0%
0"
05
#225000
1%
1"
15
#230000
b10111 :
0%
0"
05
#235000
1%
1"
15
#240000
b11000 :
0%
0"
05
#245000
1%
1"
15
#250000
b11001 :
0%
0"
05
#255000
1%
1"
15
#260000
b11010 :
0%
0"
05
#265000
1%
1"
15
#270000
b11011 :
0%
0"
05
#275000
1%
1"
15
#280000
b11100 :
0%
0"
05
#285000
1%
1"
15
#290000
b11101 :
0%
0"
05
#295000
1%
1"
15
#300000
b11110 :
0%
0"
05
#305000
1%
1"
15
#310000
b11111 :
0%
0"
05
#315000
1%
1"
15
#320000
b100000 :
0%
0"
05
#325000
1%
1"
15
#330000
b100001 :
0%
0"
05
#335000
1%
1"
15
#340000
b100010 :
0%
0"
05
#345000
1%
1"
15
#350000
b100011 :
0%
0"
05
#355000
1%
1"
15
#360000
b100100 :
0%
0"
05
#365000
1%
1"
15
#370000
b100101 :
0%
0"
05
#375000
1%
1"
15
#380000
b100110 :
0%
0"
05
#385000
1%
1"
15
#390000
b100111 :
0%
0"
05
#395000
1%
1"
15
#400000
b101000 :
0%
0"
05
#405000
1%
1"
15
#410000
b101001 :
0%
0"
05
#415000
1%
1"
15
#420000
b101010 :
0%
0"
05
#425000
1%
1"
15
#430000
b101011 :
0%
0"
05
#435000
1%
1"
15
#440000
b101100 :
0%
0"
05
#445000
1%
1"
15
#450000
b101101 :
0%
0"
05
#455000
1%
1"
15
#460000
b101110 :
0%
0"
05
#465000
1%
1"
15
#470000
b101111 :
0%
0"
05
#475000
1%
1"
15
#480000
b110000 :
0%
0"
05
#485000
1%
1"
15
#490000
b110001 :
0%
0"
05
#495000
1%
1"
15
#500000
b110010 :
0%
0"
05
#505000
1%
1"
15
#510000
b110011 :
0%
0"
05
#515000
1%
1"
15
#520000
b110100 :
0%
0"
05
#525000
1%
1"
15
#530000
b110101 :
0%
0"
05
#535000
1%
1"
15
#540000
b110110 :
0%
0"
05
#545000
1%
1"
15
#550000
b110111 :
0%
0"
05
#555000
1%
1"
15
#560000
b111000 :
0%
0"
05
#565000
1%
1"
15
#570000
b111001 :
0%
0"
05
#575000
1%
1"
15
#580000
b111010 :
0%
0"
05
#585000
1%
1"
15
#590000
b111011 :
0%
0"
05
#595000
1%
1"
15
#600000
b111100 :
0%
0"
05
#605000
1%
1"
15
#610000
b111101 :
0%
0"
05
#615000
1%
1"
15
#620000
b111110 :
0%
0"
05
#625000
1%
1"
15
#630000
b111111 :
0%
0"
05
#635000
1%
1"
15
#640000
b1000000 :
0%
0"
05
#645000
1%
1"
15
#650000
b1000001 :
0%
0"
05
#655000
1%
1"
15
#660000
b1000010 :
0%
0"
05
#665000
1%
1"
15
#670000
b1000011 :
0%
0"
05
#675000
1%
1"
15
#680000
b1000100 :
0%
0"
05
#685000
1%
1"
15
#690000
b1000101 :
0%
0"
05
#695000
1%
1"
15
#700000
b1000110 :
0%
0"
05
#705000
1%
1"
15
#710000
b1000111 :
0%
0"
05
#715000
1%
1"
15
#720000
b1001000 :
0%
0"
05
#725000
1%
1"
15
#730000
b1001001 :
0%
0"
05
#735000
1%
1"
15
#740000
b1001010 :
0%
0"
05
#745000
1%
1"
15
#750000
b1001011 :
0%
0"
05
#755000
1%
1"
15
#760000
b1001100 :
0%
0"
05
#765000
1%
1"
15
#770000
b1001101 :
0%
0"
05
#775000
1%
1"
15
#780000
b1001110 :
0%
0"
05
#785000
1%
1"
15
#790000
b1001111 :
0%
0"
05
#795000
1%
1"
15
#800000
b1010000 :
0%
0"
05
#805000
1%
1"
15
#810000
b1010001 :
0%
0"
05
#815000
1%
1"
15
#820000
b1010010 :
0%
0"
05
#825000
1%
1"
15
#830000
b1010011 :
0%
0"
05
#835000
1%
1"
15
#840000
b1010100 :
0%
0"
05
#845000
1%
1"
15
#850000
b1010101 :
0%
0"
05
#855000
1%
1"
15
#860000
b1010110 :
0%
0"
05
#865000
1%
1"
15
#870000
b1010111 :
0%
0"
05
#875000
1%
1"
15
#880000
b1011000 :
0%
0"
05
#885000
1%
1"
15
#890000
b1011001 :
0%
0"
05
#895000
1%
1"
15
#900000
b1011010 :
0%
0"
05
#905000
1%
1"
15
#910000
b1011011 :
0%
0"
05
#915000
1%
1"
15
#920000
b1011100 :
0%
0"
05
#925000
1%
1"
15
#930000
b1011101 :
0%
0"
05
#935000
1%
1"
15
#940000
b1011110 :
0%
0"
05
#945000
1%
1"
15
#950000
b1011111 :
0%
0"
05
#955000
1%
1"
15
#960000
b1100000 :
0%
0"
05
#965000
1%
1"
15
#970000
b1100001 :
0%
0"
05
#975000
1%
1"
15
#980000
b1100010 :
0%
0"
05
#985000
1%
1"
15
#990000
b1100011 :
0%
0"
05
#995000
1%
1"
15
#1000000
b1100100 :
0%
0"
05
#1005000
1%
1"
15
#1010000
b1100101 :
0%
0"
05
#1015000
1%
1"
15
#1020000
b1100110 :
0%
0"
05
#1025000
1%
1"
15
#1030000
b1100111 :
0%
0"
05
#1035000
1%
1"
15
#1040000
b1101000 :
0%
0"
05
#1045000
1%
1"
15
#1050000
b1101001 :
0%
0"
05
#1055000
1%
1"
15
#1060000
b1101010 :
0%
0"
05
#1065000
1%
1"
15
#1070000
b1101011 :
0%
0"
05
#1075000
1%
1"
15
#1080000
b1101100 :
0%
0"
05
#1085000
1%
1"
15
#1090000
b1101101 :
0%
0"
05
#1095000
1%
1"
15
#1100000
b1101110 :
0%
0"
05
#1105000
1%
1"
15
#1110000
b1101111 :
0%
0"
05
#1115000
1%
1"
15
#1120000
b1110000 :
0%
0"
05
#1125000
1%
1"
15
#1130000
b1110001 :
0%
0"
05
#1135000
1%
1"
15
#1140000
b1110010 :
0%
0"
05
#1145000
1%
1"
15
#1150000
b1110011 :
0%
0"
05
#1155000
1%
1"
15
#1160000
b1110100 :
0%
0"
05
#1165000
1%
1"
15
#1170000
b1110101 :
0%
0"
05
#1175000
1%
1"
15
#1180000
b1110110 :
0%
0"
05
#1185000
1%
1"
15
#1190000
b1110111 :
0%
0"
05
#1195000
1%
1"
15
#1200000
b1111000 :
0%
0"
05
#1205000
1%
1"
15
#1210000
b1111001 :
0%
0"
05
#1215000
1%
1"
15
#1220000
b1111010 :
0%
0"
05
#1225000
1%
1"
15
#1230000
b1111011 :
0%
0"
05
#1235000
1%
1"
15
#1240000
b1111100 :
0%
0"
05
#1245000
1%
1"
15
#1250000
b1111101 :
0%
0"
05
#1255000
1%
1"
15
#1260000
b1111110 :
0%
0"
05
#1265000
1%
1"
15
#1270000
b1111111 :
0%
0"
05
#1275000
1%
1"
15
#1280000
b10000000 :
0%
0"
05
#1285000
1%
1"
15
#1290000
b10000001 :
0%
0"
05
#1295000
1%
1"
15
#1300000
b10000010 :
0%
0"
05
#1305000
1%
1"
15
#1310000
b10000011 :
0%
0"
05
#1315000
1%
1"
15
#1320000
b10000100 :
0%
0"
05
#1325000
1%
1"
15
#1330000
b10000101 :
0%
0"
05
#1335000
1%
1"
15
#1340000
b10000110 :
0%
0"
05
#1345000
1%
1"
15
#1350000
b10000111 :
0%
0"
05
#1355000
1%
1"
15
#1360000
b10001000 :
0%
0"
05
#1365000
1%
1"
15
#1370000
b10001001 :
0%
0"
05
#1375000
1%
1"
15
#1380000
b10001010 :
0%
0"
05
#1385000
1%
1"
15
#1390000
b10001011 :
0%
0"
05
#1395000
1%
1"
15
#1400000
b10001100 :
0%
0"
05
#1405000
1%
1"
15
#1410000
b10001101 :
0%
0"
05
#1415000
1%
1"
15
#1420000
b10001110 :
0%
0"
05
#1425000
1%
1"
15
#1430000
b10001111 :
0%
0"
05
#1435000
1%
1"
15
#1440000
b10010000 :
0%
0"
05
#1445000
1%
1"
15
#1450000
b10010001 :
0%
0"
05
#1455000
1%
1"
15
#1460000
b10010010 :
0%
0"
05
#1465000
1%
1"
15
#1470000
b10010011 :
0%
0"
05
#1475000
1%
1"
15
#1480000
b10010100 :
0%
0"
05
#1485000
1%
1"
15
#1490000
b10010101 :
0%
0"
05
#1495000
1%
1"
15
#1500000
b10010110 :
0%
0"
05
#1505000
1%
1"
15
#1510000
b10010111 :
0%
0"
05
#1515000
1%
1"
15
#1520000
b10011000 :
0%
0"
05
#1525000
1%
1"
15
#1530000
b10011001 :
0%
0"
05
#1535000
1%
1"
15
#1540000
b10011010 :
0%
0"
05
#1545000
1%
1"
15
#1550000
b10011011 :
0%
0"
05
#1555000
1%
1"
15
#1560000
b10011100 :
0%
0"
05
#1565000
1%
1"
15
#1570000
b10011101 :
0%
0"
05
#1575000
1%
1"
15
#1580000
b10011110 :
0%
0"
05
#1585000
1%
1"
15
#1590000
b10011111 :
0%
0"
05
#1595000
1%
1"
15
#1600000
b10100000 :
0%
0"
05
#1605000
1%
1"
15
#1610000
b10100001 :
0%
0"
05
#1615000
1%
1"
15
#1620000
b10100010 :
0%
0"
05
#1625000
1%
1"
15
#1630000
b10100011 :
0%
0"
05
#1635000
1%
1"
15
#1640000
b10100100 :
0%
0"
05
#1645000
1%
1"
15
#1650000
b10100101 :
0%
0"
05
#1655000
1%
1"
15
#1660000
b10100110 :
0%
0"
05
#1665000
1%
1"
15
#1670000
b10100111 :
0%
0"
05
#1675000
1%
1"
15
#1680000
b10101000 :
0%
0"
05
#1685000
1%
1"
15
#1690000
b10101001 :
0%
0"
05
#1695000
1%
1"
15
#1700000
b10101010 :
0%
0"
05
#1705000
1%
1"
15
#1710000
b10101011 :
0%
0"
05
#1715000
1%
1"
15
#1720000
b10101100 :
0%
0"
05
#1725000
1%
1"
15
#1730000
b10101101 :
0%
0"
05
#1735000
1%
1"
15
#1740000
b10101110 :
0%
0"
05
#1745000
1%
1"
15
#1750000
b10101111 :
0%
0"
05
#1755000
1%
1"
15
#1760000
b10110000 :
0%
0"
05
#1765000
1%
1"
15
#1770000
b10110001 :
0%
0"
05
#1775000
1%
1"
15
#1780000
b10110010 :
0%
0"
05
#1785000
1%
1"
15
#1790000
b10110011 :
0%
0"
05
#1795000
1%
1"
15
#1800000
b10110100 :
0%
0"
05
#1805000
1%
1"
15
#1810000
b10110101 :
0%
0"
05
#1815000
1%
1"
15
#1820000
b10110110 :
0%
0"
05
#1825000
1%
1"
15
#1830000
b10110111 :
0%
0"
05
#1835000
1%
1"
15
#1840000
b10111000 :
0%
0"
05
#1845000
1%
1"
15
#1850000
b10111001 :
0%
0"
05
#1855000
1%
1"
15
#1860000
b10111010 :
0%
0"
05
#1865000
1%
1"
15
#1870000
b10111011 :
0%
0"
05
#1875000
1%
1"
15
#1880000
b10111100 :
0%
0"
05
#1885000
1%
1"
15
#1890000
b10111101 :
0%
0"
05
#1895000
1%
1"
15
#1900000
b10111110 :
0%
0"
05
#1905000
1%
1"
15
#1910000
b10111111 :
0%
0"
05
#1915000
1%
1"
15
#1920000
b11000000 :
0%
0"
05
#1925000
1%
1"
15
#1930000
b11000001 :
0%
0"
05
#1935000
1%
1"
15
#1940000
b11000010 :
0%
0"
05
#1945000
1%
1"
15
#1950000
b11000011 :
0%
0"
05
#1955000
1%
1"
15
#1960000
b11000100 :
0%
0"
05
#1965000
1%
1"
15
#1970000
b11000101 :
0%
0"
05
#1975000
1%
1"
15
#1980000
b11000110 :
0%
0"
05
#1985000
1%
1"
15
#1990000
b11000111 :
0%
0"
05
#1995000
1%
1"
15
#2000000
b11001000 :
0%
0"
05
#2005000
1%
1"
15
#2010000
b11001001 :
0%
0"
05
#2015000
1%
1"
15
#2020000
b11001010 :
0%
0"
05
#2025000
1%
1"
15
#2030000
b11001011 :
0%
0"
05
#2035000
1%
1"
15
#2040000
b11001100 :
0%
0"
05
#2045000
1%
1"
15
#2050000
b11001101 :
0%
0"
05
#2055000
1%
1"
15
#2060000
b11001110 :
0%
0"
05
#2065000
1%
1"
15
#2070000
b11001111 :
0%
0"
05
#2075000
1%
1"
15
#2080000
b11010000 :
0%
0"
05
#2085000
1%
1"
15
#2090000
b11010001 :
0%
0"
05
#2095000
1%
1"
15
#2100000
b11010010 :
0%
0"
05
#2105000
1%
1"
15
#2110000
b11010011 :
0%
0"
05
#2115000
1%
1"
15
#2120000
b11010100 :
0%
0"
05
#2125000
1%
1"
15
#2130000
b11010101 :
0%
0"
05
#2135000
1%
1"
15
#2140000
b11010110 :
0%
0"
05
#2145000
1%
1"
15
#2150000
b11010111 :
0%
0"
05
#2155000
1%
1"
15
#2160000
b11011000 :
0%
0"
05
#2165000
1%
1"
15
#2170000
b11011001 :
0%
0"
05
#2175000
1%
1"
15
#2180000
b11011010 :
0%
0"
05
#2185000
1%
1"
15
#2190000
b11011011 :
0%
0"
05
#2195000
1%
1"
15
#2200000
b11011100 :
0%
0"
05
#2205000
1%
1"
15
#2210000
b11011101 :
0%
0"
05
#2215000
1%
1"
15
#2220000
b11011110 :
0%
0"
05
#2225000
1%
1"
15
#2230000
b11011111 :
0%
0"
05
#2235000
1%
1"
15
#2240000
b11100000 :
0%
0"
05
#2245000
1%
1"
15
#2250000
b11100001 :
0%
0"
05
#2255000
1%
1"
15
#2260000
b11100010 :
0%
0"
05
#2265000
1%
1"
15
#2270000
b11100011 :
0%
0"
05
#2275000
1%
1"
15
#2280000
b11100100 :
0%
0"
05
#2285000
1%
1"
15
#2290000
b11100101 :
0%
0"
05
#2295000
1%
1"
15
#2300000
b11100110 :
0%
0"
05
#2305000
1%
1"
15
#2310000
b11100111 :
0%
0"
05
#2315000
1%
1"
15
#2320000
b11101000 :
0%
0"
05
#2325000
1%
1"
15
#2330000
b11101001 :
0%
0"
05
#2335000
1%
1"
15
#2340000
b11101010 :
0%
0"
05
#2345000
1%
1"
15
#2350000
b11101011 :
0%
0"
05
#2355000
1%
1"
15
#2360000
b11101100 :
0%
0"
05
#2365000
1%
1"
15
#2370000
b11101101 :
0%
0"
05
#2375000
1%
1"
15
#2380000
b11101110 :
0%
0"
05
#2385000
1%
1"
15
#2390000
b11101111 :
0%
0"
05
#2395000
1%
1"
15
#2400000
b11110000 :
0%
0"
05
#2405000
1%
1"
15
#2410000
b11110001 :
0%
0"
05
#2415000
1%
1"
15
#2420000
b11110010 :
0%
0"
05
#2425000
1%
1"
15
#2430000
b11110011 :
0%
0"
05
#2435000
1%
1"
15
#2440000
b11110100 :
0%
0"
05
#2445000
1%
1"
15
#2450000
b11110101 :
0%
0"
05
#2455000
1%
1"
15
#2460000
b11110110 :
0%
0"
05
#2465000
1%
1"
15
#2470000
b11110111 :
0%
0"
05
#2475000
1%
1"
15
#2480000
b11111000 :
0%
0"
05
#2485000
1%
1"
15
#2490000
b11111001 :
0%
0"
05
#2495000
1%
1"
15
#2500000
b11111010 :
0%
0"
05
#2505000
1%
1"
15
#2510000
b11111011 :
0%
0"
05
#2515000
1%
1"
15
#2520000
b11111100 :
0%
0"
05
#2525000
1%
1"
15
#2530000
b11111101 :
0%
0"
05
#2535000
1%
1"
15
#2540000
b11111110 :
0%
0"
05
#2545000
1%
1"
15
#2550000
b11111111 :
0%
0"
05
#2555000
1%
1"
15
#2560000
b100000000 :
0%
0"
05
#2565000
1%
1"
15
#2570000
b100000001 :
0%
0"
05
#2575000
1%
1"
15
#2580000
b100000010 :
0%
0"
05
#2585000
1%
1"
15
#2590000
b100000011 :
0%
0"
05
#2595000
1%
1"
15
#2600000
b100000100 :
0%
0"
05
#2605000
1%
1"
15
#2610000
b100000101 :
0%
0"
05
#2615000
1%
1"
15
#2620000
b100000110 :
0%
0"
05
#2625000
1%
1"
15
#2630000
b100000111 :
0%
0"
05
#2635000
1%
1"
15
#2640000
b100001000 :
0%
0"
05
#2645000
1%
1"
15
#2650000
b100001001 :
0%
0"
05
#2655000
1%
1"
15
#2660000
b100001010 :
0%
0"
05
#2665000
1%
1"
15
#2670000
b100001011 :
0%
0"
05
#2675000
1%
1"
15
#2680000
b100001100 :
0%
0"
05
#2685000
1%
1"
15
#2690000
b100001101 :
0%
0"
05
#2695000
1%
1"
15
#2700000
b100001110 :
0%
0"
05
#2705000
1%
1"
15
#2710000
b100001111 :
0%
0"
05
#2715000
1%
1"
15
#2720000
b100010000 :
0%
0"
05
#2725000
1%
1"
15
#2730000
b100010001 :
0%
0"
05
#2735000
1%
1"
15
#2740000
b100010010 :
0%
0"
05
#2745000
1%
1"
15
#2750000
b100010011 :
0%
0"
05
#2755000
1%
1"
15
#2760000
b100010100 :
0%
0"
05
#2765000
1%
1"
15
#2770000
b100010101 :
0%
0"
05
#2775000
1%
1"
15
#2780000
b100010110 :
0%
0"
05
#2785000
1%
1"
15
#2790000
b100010111 :
0%
0"
05
#2795000
1%
1"
15
#2800000
b100011000 :
0%
0"
05
#2805000
1%
1"
15
#2810000
b100011001 :
0%
0"
05
#2815000
1%
1"
15
#2820000
b100011010 :
0%
0"
05
#2825000
1%
1"
15
#2830000
b100011011 :
0%
0"
05
#2835000
1%
1"
15
#2840000
b100011100 :
0%
0"
05
#2845000
1%
1"
15
#2850000
b100011101 :
0%
0"
05
#2855000
1%
1"
15
#2860000
b100011110 :
0%
0"
05
#2865000
1%
1"
15
#2870000
b100011111 :
0%
0"
05
#2875000
1%
1"
15
#2880000
b100100000 :
0%
0"
05
#2885000
1%
1"
15
#2890000
b100100001 :
0%
0"
05
#2895000
1%
1"
15
#2900000
b100100010 :
0%
0"
05
#2905000
1%
1"
15
#2910000
b100100011 :
0%
0"
05
#2915000
1%
1"
15
#2920000
b100100100 :
0%
0"
05
#2925000
1%
1"
15
#2930000
b100100101 :
0%
0"
05
#2935000
1%
1"
15
#2940000
b100100110 :
0%
0"
05
#2945000
1%
1"
15
#2950000
b100100111 :
0%
0"
05
#2955000
1%
1"
15
#2960000
b100101000 :
0%
0"
05
#2965000
1%
1"
15
#2970000
b100101001 :
0%
0"
05
#2975000
1%
1"
15
#2980000
b100101010 :
0%
0"
05
#2985000
1%
1"
15
#2990000
b100101011 :
0%
0"
05
#2995000
1%
1"
15
#3000000
b100101100 :
0%
0"
05
#3005000
1%
1"
15
#3010000
b100101101 :
0%
0"
05
#3015000
1%
1"
15
#3020000
b100101110 :
0%
0"
05
#3025000
1%
1"
15
#3030000
b100101111 :
0%
0"
05
#3035000
1%
1"
15
#3040000
b100110000 :
0%
0"
05
#3045000
1%
1"
15
#3050000
b100110001 :
0%
0"
05
#3055000
1%
1"
15
#3060000
b100110010 :
0%
0"
05
#3065000
1%
1"
15
#3070000
b100110011 :
0%
0"
05
#3075000
1%
1"
15
#3080000
b100110100 :
0%
0"
05
#3085000
1%
1"
15
#3090000
b100110101 :
0%
0"
05
#3095000
1%
1"
15
#3100000
b100110110 :
0%
0"
05
#3105000
1%
1"
15
#3110000
b100110111 :
0%
0"
05
#3115000
1%
1"
15
#3120000
b100111000 :
0%
0"
05
#3125000
1%
1"
15
#3130000
b100111001 :
0%
0"
05
#3135000
1%
1"
15
#3140000
b100111010 :
0%
0"
05
#3145000
1%
1"
15
#3150000
b100111011 :
0%
0"
05
#3155000
1%
1"
15
#3160000
b100111100 :
0%
0"
05
#3165000
1%
1"
15
#3170000
b100111101 :
0%
0"
05
#3175000
1%
1"
15
#3180000
b100111110 :
0%
0"
05
#3185000
1%
1"
15
#3190000
b100111111 :
0%
0"
05
#3195000
1%
1"
15
#3200000
b101000000 :
0%
0"
05
#3205000
1%
1"
15
#3210000
b101000001 :
0%
0"
05
#3215000
1%
1"
15
#3220000
b101000010 :
0%
0"
05
#3225000
1%
1"
15
#3230000
b101000011 :
0%
0"
05
#3235000
1%
1"
15
#3240000
b101000100 :
0%
0"
05
#3245000
1%
1"
15
#3250000
b101000101 :
0%
0"
05
#3255000
1%
1"
15
#3260000
b101000110 :
0%
0"
05
#3265000
1%
1"
15
#3270000
b101000111 :
0%
0"
05
#3275000
1%
1"
15
#3280000
b101001000 :
0%
0"
05
#3285000
1%
1"
15
#3290000
b101001001 :
0%
0"
05
#3295000
1%
1"
15
#3300000
b101001010 :
0%
0"
05
#3305000
1%
1"
15
#3310000
b101001011 :
0%
0"
05
#3315000
1%
1"
15
#3320000
b101001100 :
0%
0"
05
#3325000
1%
1"
15
#3330000
b101001101 :
0%
0"
05
#3335000
1%
1"
15
#3340000
b101001110 :
0%
0"
05
#3345000
1%
1"
15
#3350000
b101001111 :
0%
0"
05
#3355000
1%
1"
15
#3360000
b101010000 :
0%
0"
05
#3365000
1%
1"
15
#3370000
b101010001 :
0%
0"
05
#3375000
1%
1"
15
#3380000
b101010010 :
0%
0"
05
#3385000
1%
1"
15
#3390000
b101010011 :
0%
0"
05
#3395000
1%
1"
15
#3400000
b101010100 :
0%
0"
05
#3405000
1%
1"
15
#3410000
b101010101 :
0%
0"
05
#3415000
1%
1"
15
#3420000
b101010110 :
0%
0"
05
#3425000
1%
1"
15
#3430000
b101010111 :
0%
0"
05
#3435000
1%
1"
15
#3440000
b101011000 :
0%
0"
05
#3445000
1%
1"
15
#3450000
b101011001 :
0%
0"
05
#3455000
1%
1"
15
#3460000
b101011010 :
0%
0"
05
#3465000
1%
1"
15
#3470000
b101011011 :
0%
0"
05
#3475000
1%
1"
15
#3480000
b101011100 :
0%
0"
05
#3485000
1%
1"
15
#3490000
b101011101 :
0%
0"
05
#3495000
1%
1"
15
#3500000
b101011110 :
0%
0"
05
#3505000
1%
1"
15
#3510000
b101011111 :
0%
0"
05
#3515000
1%
1"
15
#3520000
b101100000 :
0%
0"
05
#3525000
1%
1"
15
#3530000
b101100001 :
0%
0"
05
#3535000
1%
1"
15
#3540000
b101100010 :
0%
0"
05
#3545000
1%
1"
15
#3550000
b101100011 :
0%
0"
05
#3555000
1%
1"
15
#3560000
b101100100 :
0%
0"
05
#3565000
1%
1"
15
#3570000
b101100101 :
0%
0"
05
#3575000
1%
1"
15
#3580000
b101100110 :
0%
0"
05
#3585000
1%
1"
15
#3590000
b101100111 :
0%
0"
05
#3595000
1%
1"
15
#3600000
b101101000 :
0%
0"
05
#3605000
1%
1"
15
#3610000
b101101001 :
0%
0"
05
#3615000
1%
1"
15
#3620000
b101101010 :
0%
0"
05
#3625000
1%
1"
15
#3630000
b101101011 :
0%
0"
05
#3635000
1%
1"
15
#3640000
b101101100 :
0%
0"
05
#3645000
1%
1"
15
#3650000
b101101101 :
0%
0"
05
#3655000
1%
1"
15
#3660000
b101101110 :
0%
0"
05
#3665000
1%
1"
15
#3670000
b101101111 :
0%
0"
05
#3675000
1%
1"
15
#3680000
b101110000 :
0%
0"
05
#3685000
1%
1"
15
#3690000
b101110001 :
0%
0"
05
#3695000
1%
1"
15
#3700000
b101110010 :
0%
0"
05
#3705000
1%
1"
15
#3710000
b101110011 :
0%
0"
05
#3715000
1%
1"
15
#3720000
b101110100 :
0%
0"
05
#3725000
1%
1"
15
#3730000
b101110101 :
0%
0"
05
#3735000
1%
1"
15
#3740000
b101110110 :
0%
0"
05
#3745000
1%
1"
15
#3750000
b101110111 :
0%
0"
05
#3755000
1%
1"
15
#3760000
b101111000 :
0%
0"
05
#3765000
1%
1"
15
#3770000
b101111001 :
0%
0"
05
#3775000
1%
1"
15
#3780000
b101111010 :
0%
0"
05
#3785000
1%
1"
15
#3790000
b101111011 :
0%
0"
05
#3795000
1%
1"
15
#3800000
b101111100 :
0%
0"
05
#3805000
1%
1"
15
#3810000
b101111101 :
0%
0"
05
#3815000
1%
1"
15
#3820000
b101111110 :
0%
0"
05
#3825000
1%
1"
15
#3830000
b101111111 :
0%
0"
05
#3835000
1%
1"
15
#3840000
b110000000 :
0%
0"
05
#3845000
1%
1"
15
#3850000
b110000001 :
0%
0"
05
#3855000
1%
1"
15
#3860000
b110000010 :
0%
0"
05
#3865000
1%
1"
15
#3870000
b110000011 :
0%
0"
05
#3875000
1%
1"
15
#3880000
b110000100 :
0%
0"
05
#3885000
1%
1"
15
#3890000
b110000101 :
0%
0"
05
#3895000
1%
1"
15
#3900000
b110000110 :
0%
0"
05
#3905000
1%
1"
15
#3910000
b110000111 :
0%
0"
05
#3915000
1%
1"
15
#3920000
b110001000 :
0%
0"
05
#3925000
1%
1"
15
#3930000
b110001001 :
0%
0"
05
#3935000
1%
1"
15
#3940000
b110001010 :
0%
0"
05
#3945000
1%
1"
15
#3950000
b110001011 :
0%
0"
05
#3955000
1%
1"
15
#3960000
b110001100 :
0%
0"
05
#3965000
1%
1"
15
#3970000
b110001101 :
0%
0"
05
#3975000
1%
1"
15
#3980000
b110001110 :
0%
0"
05
#3985000
1%
1"
15
#3990000
b110001111 :
0%
0"
05
#3995000
1%
1"
15
#4000000
b110010000 :
0%
0"
05
#4005000
1%
1"
15
#4010000
b110010001 :
0%
0"
05
#4015000
1%
1"
15
#4020000
b110010010 :
0%
0"
05
#4025000
1%
1"
15
#4030000
b110010011 :
0%
0"
05
#4035000
1%
1"
15
#4040000
b110010100 :
0%
0"
05
#4045000
1%
1"
15
#4050000
b110010101 :
0%
0"
05
#4055000
1%
1"
15
#4060000
b110010110 :
0%
0"
05
#4065000
1%
1"
15
#4070000
b110010111 :
0%
0"
05
#4075000
1%
1"
15
#4080000
b110011000 :
0%
0"
05
#4085000
1%
1"
15
#4090000
b110011001 :
0%
0"
05
#4095000
1%
1"
15
#4100000
b110011010 :
0%
0"
05
#4105000
1%
1"
15
#4110000
b110011011 :
0%
0"
05
#4115000
1%
1"
15
#4120000
b110011100 :
0%
0"
05
#4125000
1%
1"
15
#4130000
b110011101 :
0%
0"
05
#4135000
1%
1"
15
#4140000
b110011110 :
0%
0"
05
#4145000
1%
1"
15
#4150000
b110011111 :
0%
0"
05
#4155000
1%
1"
15
#4160000
b110100000 :
0%
0"
05
#4165000
1%
1"
15
#4170000
b110100001 :
0%
0"
05
#4175000
1%
1"
15
#4180000
b110100010 :
0%
0"
05
#4185000
1%
1"
15
#4190000
b110100011 :
0%
0"
05
#4195000
1%
1"
15
#4200000
b110100100 :
0%
0"
05
#4205000
1%
1"
15
#4210000
b110100101 :
0%
0"
05
#4215000
1%
1"
15
#4220000
b110100110 :
0%
0"
05
#4225000
1%
1"
15
#4230000
b110100111 :
0%
0"
05
#4235000
1%
1"
15
#4240000
b110101000 :
0%
0"
05
#4245000
1%
1"
15
#4250000
b110101001 :
0%
0"
05
#4255000
1%
1"
15
#4260000
b110101010 :
0%
0"
05
#4265000
1%
1"
15
#4270000
b110101011 :
0%
0"
05
#4275000
1%
1"
15
#4280000
b110101100 :
0%
0"
05
#4285000
1%
1"
15
#4290000
b110101101 :
0%
0"
05
#4295000
1%
1"
15
#4300000
b110101110 :
0%
0"
05
#4305000
1%
1"
15
#4310000
b110101111 :
0%
0"
05
#4315000
1%
1"
15
#4320000
b110110000 :
0%
0"
05
