openfpga_flow/tasks/SOFA_tasks/Decoder/vpr_arch/decoder_3_to_8/MIN_ROUTE_CHAN_WIDTH/decoder_3_to_8_formal.vcd
$date
	Thu Mar 30 13:58:07 2023
$end
$version
	Icarus Verilog
$end
$timescale
	1ps
$end
$scope module decoder_3_to_8_autocheck_top_tb $end
$var wire 1 ! __op_clock__ $end
$var wire 1 " __prog_clock__ $end
$var wire 1 # clk $end
$var wire 1 $ isol_n $end
$var wire 1 % prog_clk $end
$var wire 1 & prog_reset $end
$var wire 1 ' reset $end
$var wire 1 ( test_enable $end
$var wire 1 ) out_7__fpga $end
$var wire 1 * out_7__benchmark $end
$var wire 1 + out_6__fpga $end
$var wire 1 , out_6__benchmark $end
$var wire 1 - out_5__fpga $end
$var wire 1 . out_5__benchmark $end
$var wire 1 / out_4__fpga $end
$var wire 1 0 out_4__benchmark $end
$var wire 1 1 out_3__fpga $end
$var wire 1 2 out_3__benchmark $end
$var wire 1 3 out_2__fpga $end
$var wire 1 4 out_2__benchmark $end
$var wire 1 5 out_1__fpga $end
$var wire 1 6 out_1__benchmark $end
$var wire 1 7 out_0__fpga $end
$var wire 1 8 out_0__benchmark $end
$var wire 128 9 gfpga_pad_io_soc_out [0:127] $end
$var wire 128 : gfpga_pad_io_soc_in [0:127] $end
$var wire 128 ; gfpga_pad_io_soc_dir [0:127] $end
$var wire 1 < ccff_tail $end
$var reg 1 = __config_done__ $end
$var reg 1 > __greset__ $end
$var reg 1 ? __gset__ $end
$var reg 1 @ __op_clock___reg__ $end
$var reg 1 A __prog_clock___reg__ $end
$var reg 1 B __prog_reset__ $end
$var reg 1 C __prog_set_ $end
$var reg 17 D bit_index [16:0] $end
$var reg 1 E ccff_head $end
$var reg 1 F en_shared_input $end
$var reg 17 G ibit [16:0] $end
$var reg 1 H in_0__shared_input $end
$var reg 1 I in_1__shared_input $end
$var reg 1 J in_2__shared_input $end
$var reg 1 K out_0__flag $end
$var reg 1 L out_1__flag $end
$var reg 1 M out_2__flag $end
$var reg 1 N out_3__flag $end
$var reg 1 O out_4__flag $end
$var reg 1 P out_5__flag $end
$var reg 1 Q out_6__flag $end
$var reg 1 R out_7__flag $end
$var reg 1 S sim_start $end
$var reg 1 T skip_bits $end
$var integer 32 U nb_error [31:0] $end
$upscope $end
$enddefinitions $end
#0
$dumpvars
b1 U
0T
1S
0R
0Q
0P
0O
0N
0M
0L
0K
0J
1I
0H
b1000110000110001 G
0F
0E
b0 D
1C
1B
0A
0@
0?
1>
0=
x<
bx ;
b10000000000000000000000000000000000000000000000000000000000000000000000000000000000000000000000000000000000000000 :
bx 9
08
x7
06
x5
04
x3
02
x1
00
x/
0.
x-
0,
x+
0*
x)
0(
0'
0&
0%
1$
0#
0"
0!
$end
#1000
13
07
1)
15
01
1-
0+
1/
b11000001101110100011110111100000100000001101101101111000111011100101110011000011001101111110111000001101011111000000011000101110 9
b0 ;
0<
#5000
1A
#10000
b1 D
1&
0A
0C
0B
#15000
1%
1"
1A
#20000
b10 D
0%
0"
0A
#25000
1%
1"
1A
#30000
b11 D
0%
0"
0A
#35000
1%
1"
1A
#40000
b100 D
0%
0"
0A
#45000
1%
1"
1A
#50000
b101 D
0%
0"
0A
#55000
1%
1"
1A
#60000
b110 D
0%
0"
0A
#65000
1%
1"
1A
#70000
b111 D
0%
0"
0A
#75000
1%
1"
1A
#80000
b1000 D
0%
0"
0A
#85000
1%
1"
1A
#90000
b1001 D
0%
0"
0A
#95000
1%
1"
1A
#100000
b1010 D
0%
0"
0A
#105000
1%
1"
1A
#110000
b1011 D
0%
0"
0A
#115000
1%
1"
1A
#120000
b1100 D
0%
0"
0A
#125000
1%
1"
1A
#130000
b1101 D
0%
0"
0A
#135000
1%
1"
1A
#140000
b1110 D
0%
0"
0A
#145000
1%
1"
1A
#150000
b1111 D
0%
0"
0A
#155000
1%
1"
1A
#160000
b10000 D
0%
0"
0A
#165000
1%
1"
1A
#170000
b10001 D
0%
0"
0A
#175000
1%
1"
1A
#180000
b10010 D
0%
0"
0A
#185000
1%
1"
1A
#190000
b10011 D
0%
0"
0A
#195000
1%
1"
1A
#200000
b10100 D
0%
0"
0A
#205000
1%
1"
1A
#210000
b10101 D
0%
0"
0A
#215000
1%
1"
1A
#220000
b10110 D
0%
0"
0A
#225000
1%
1"
1A
#230000
b10111 D
0%
0"
0A
#235000
1%
1"
1A
#240000
b11000 D
0%
0"
0A
#245000
1%
1"
1A
#250000
b11001 D
0%
0"
0A
#255000
1%
1"
1A
#260000
b11010 D
0%
0"
0A
#265000
1%
1"
1A
#270000
b11011 D
0%
0"
0A
#275000
1%
1"
1A
#280000
b11100 D
0%
0"
0A
#285000
1%
1"
1A
#290000
b11101 D
0%
0"
0A
#295000
1%
1"
1A
#300000
b11110 D
0%
0"
0A
#305000
1%
1"
1A
#310000
b11111 D
0%
0"
0A
#315000
1%
1"
1A
#320000
b100000 D
0%
0"
0A
#325000
1%
1"
1A
#330000
b100001 D
0%
0"
0A
#335000
1%
1"
1A
#340000
b100010 D
0%
0"
0A
#345000
1%
1"
1A
#350000
b100011 D
0%
0"
0A
#355000
1%
1"
1A
#360000
b100100 D
0%
0"
0A
#365000
1%
1"
1A
#370000
b100101 D
0%
0"
0A
#375000
1%
1"
1A
#380000
b100110 D
0%
0"
0A
#385000
1%
1"
1A
#390000
b100111 D
0%
0"
0A
#395000
1%
1"
1A
#400000
b101000 D
0%
0"
0A
#405000
1%
1"
1A
#410000
b101001 D
0%
0"
0A
#415000
1%
1"
1A
#420000
b101010 D
0%
0"
0A
#425000
1%
1"
1A
#430000
b101011 D
0%
0"
0A
#435000
1%
1"
1A
#440000
b101100 D
0%
0"
0A
#445000
1%
1"
1A
#450000
b101101 D
0%
0"
0A
#455000
1%
1"
1A
#460000
b101110 D
0%
0"
0A
#465000
1%
1"
1A
#470000
b101111 D
0%
0"
0A
#475000
1%
1"
1A
#480000
b110000 D
0%
0"
0A
#485000
1%
1"
1A
#490000
b110001 D
0%
0"
0A
#495000
1%
1"
1A
#500000
b110010 D
0%
0"
0A
#505000
1%
1"
1A
#510000
b110011 D
0%
0"
0A
#515000
1%
1"
1A
#520000
b110100 D
0%
0"
0A
#525000
1%
1"
1A
#530000
b110101 D
0%
0"
0A
#535000
1%
1"
1A
#540000
b110110 D
0%
0"
0A
#545000
1%
1"
1A
#550000
b110111 D
0%
0"
0A
#555000
1%
1"
1A
#560000
b111000 D
0%
0"
0A
#565000
1%
1"
1A
#570000
b111001 D
0%
0"
0A
#575000
1%
1"
1A
#580000
b111010 D
0%
0"
0A
#585000
1%
1"
1A
#590000
b111011 D
0%
0"
0A
#595000
1%
1"
1A
#600000
b111100 D
0%
0"
0A
#605000
1%
1"
1A
#610000
b111101 D
0%
0"
0A
#615000
1%
1"
1A
#620000
b111110 D
0%
0"
0A
#625000
1%
1"
1A
#630000
b111111 D
0%
0"
0A
#635000
1%
1"
1A
#640000
b1000000 D
0%
0"
0A
#645000
1%
1"
1A
#650000
b1000001 D
0%
0"
0A
#655000
1%
1"
1A
#660000
b1000010 D
0%
0"
0A
#665000
1%
1"
1A
#670000
b1000011 D
0%
0"
0A
#675000
1%
1"
1A
#680000
b1000100 D
0%
0"
0A
#685000
1%
1"
1A
#690000
b1000101 D
0%
0"
0A
#695000
1%
1"
1A
#700000
b1000110 D
0%
0"
0A
#705000
1%
1"
1A
#710000
b1000111 D
0%
0"
0A
#715000
1%
1"
1A
#720000
b1001000 D
0%
0"
0A
#725000
1%
1"
1A
#730000
b1001001 D
0%
0"
0A
#735000
1%
1"
1A
#740000
b1001010 D
0%
0"
0A
#745000
1%
1"
1A
#750000
b1001011 D
0%
0"
0A
#755000
1%
1"
1A
#760000
b1001100 D
0%
0"
0A
#765000
1%
1"
1A
#770000
b1001101 D
0%
0"
0A
#775000
1%
1"
1A
#780000
b1001110 D
0%
0"
0A
#785000
1%
1"
1A
#790000
b1001111 D
0%
0"
0A
#795000
1%
1"
1A
#800000
b1010000 D
0%
0"
0A
#805000
1%
1"
1A
#810000
b1010001 D
0%
0"
0A
#815000
1%
1"
1A
#820000
b1010010 D
0%
0"
0A
#825000
1%
1"
1A
#830000
b1010011 D
0%
0"
0A
#835000
1%
1"
1A
#840000
b1010100 D
0%
0"
0A
#845000
1%
1"
1A
#850000
b1010101 D
0%
0"
0A
#855000
1%
1"
1A
#860000
b1010110 D
0%
0"
0A
#865000
1%
1"
1A
#870000
b1010111 D
0%
0"
0A
#875000
1%
1"
1A
#880000
b1011000 D
0%
0"
0A
#885000
1%
1"
1A
#890000
b1011001 D
0%
0"
0A
#895000
1%
1"
1A
#900000
b1011010 D
0%
0"
0A
#905000
1%
1"
1A
#910000
b1011011 D
0%
0"
0A
#915000
1%
1"
1A
#920000
b1011100 D
0%
0"
0A
#925000
1%
1"
1A
#930000
b1011101 D
0%
0"
0A
#935000
1%
1"
1A
#940000
b1011110 D
0%
0"
0A
#945000
1%
1"
1A
#950000
b1011111 D
0%
0"
0A
#955000
1%
1"
1A
#960000
b1100000 D
0%
0"
0A
#965000
1%
1"
1A
#970000
b1100001 D
0%
0"
0A
#975000
1%
1"
1A
#980000
b1100010 D
0%
0"
0A
#985000
1%
1"
1A
#990000
b1100011 D
0%
0"
0A
#995000
1%
1"
1A
#1000000
b1100100 D
0%
0"
0A
#1005000
1%
1"
1A
#1010000
b1100101 D
0%
0"
0A
#1015000
1%
1"
1A
#1020000
b1100110 D
0%
0"
0A
#1025000
1%
1"
1A
#1030000
b1100111 D
0%
0"
0A
#1035000
1%
1"
1A
#1040000
b1101000 D
0%
0"
0A
#1045000
1%
1"
1A
#1050000
b1101001 D
0%
0"
0A
#1055000
1%
1"
1A
#1060000
b1101010 D
0%
0"
0A
#1065000
1%
1"
1A
#1070000
b1101011 D
0%
0"
0A
#1075000
1%
1"
1A
#1080000
b1101100 D
0%
0"
0A
#1085000
1%
1"
1A
#1090000
b1101101 D
0%
0"
0A
#1095000
1%
1"
1A
#1100000
b1101110 D
0%
0"
0A
#1105000
1%
1"
1A
#1110000
b1101111 D
0%
0"
0A
#1115000
1%
1"
1A
#1120000
b1110000 D
0%
0"
0A
#1125000
1%
1"
1A
#1130000
b1110001 D
0%
0"
0A
#1135000
1%
1"
1A
#1140000
b1110010 D
0%
0"
0A
#1145000
1%
1"
1A
#1150000
b1110011 D
0%
0"
0A
#1155000
1%
1"
1A
#1160000
b1110100 D
0%
0"
0A
#1165000
1%
1"
1A
#1170000
b1110101 D
0%
0"
0A
#1175000
1%
1"
1A
#1180000
b1110110 D
0%
0"
0A
#1185000
1%
1"
1A
#1190000
b1110111 D
0%
0"
0A
#1195000
1%
1"
1A
#1200000
b1111000 D
0%
0"
0A
#1205000
1%
1"
1A
#1210000
b1111001 D
0%
0"
0A
#1215000
1%
1"
1A
#1220000
b1111010 D
0%
0"
0A
#1225000
1%
1"
1A
#1230000
b1111011 D
0%
0"
0A
#1235000
1%
1"
1A
#1240000
b1111100 D
0%
0"
0A
#1245000
1%
1"
1A
#1250000
b1111101 D
0%
0"
0A
#1255000
1%
1"
1A
#1260000
b1111110 D
0%
0"
0A
#1265000
1%
1"
1A
#1270000
b1111111 D
0%
0"
0A
#1275000
1%
1"
1A
#1280000
b10000000 D
0%
0"
0A
#1285000
1%
1"
1A
#1290000
b10000001 D
0%
0"
0A
#1295000
1%
1"
1A
#1300000
b10000010 D
0%
0"
0A
#1305000
1%
1"
1A
#1310000
b10000011 D
0%
0"
0A
#1315000
1%
1"
1A
#1320000
b10000100 D
0%
0"
0A
#1325000
1%
1"
1A
#1330000
b10000101 D
0%
0"
0A
#1335000
1%
1"
1A
#1340000
b10000110 D
0%
0"
0A
#1345000
1%
1"
1A
#1350000
b10000111 D
0%
0"
0A
#1355000
1%
1"
1A
#1360000
b10001000 D
0%
0"
0A
#1365000
1%
1"
1A
#1370000
b10001001 D
0%
0"
0A
#1375000
1%
1"
1A
#1380000
b10001010 D
0%
0"
0A
#1385000
1%
1"
1A
#1390000
b10001011 D
0%
0"
0A
#1395000
1%
1"
1A
#1400000
b10001100 D
0%
0"
0A
#1405000
1%
1"
1A
#1410000
b10001101 D
0%
0"
0A
#1415000
1%
1"
1A
#1420000
b10001110 D
0%
0"
0A
#1425000
1%
1"
1A
#1430000
b10001111 D
0%
0"
0A
#1435000
1%
1"
1A
#1440000
b10010000 D
0%
0"
0A
#1445000
1%
1"
1A
#1450000
b10010001 D
0%
0"
0A
#1455000
1%
1"
1A
#1460000
b10010010 D
0%
0"
0A
#1465000
1%
1"
1A
#1470000
b10010011 D
0%
0"
0A
#1475000
1%
1"
1A
#1480000
b10010100 D
0%
0"
0A
#1485000
1%
1"
1A
#1490000
b10010101 D
0%
0"
0A
#1495000
1%
1"
1A
#1500000
b10010110 D
0%
0"
0A
#1505000
1%
1"
1A
#1510000
b10010111 D
0%
0"
0A
#1515000
1%
1"
1A
#1520000
b10011000 D
0%
0"
0A
#1525000
1%
1"
1A
#1530000
b10011001 D
0%
0"
0A
#1535000
1%
1"
1A
#1540000
b10011010 D
0%
0"
0A
#1545000
1%
1"
1A
#1550000
b10011011 D
0%
0"
0A
#1555000
1%
1"
1A
#1560000
b10011100 D
0%
0"
0A
#1565000
1%
1"
1A
#1570000
b10011101 D
0%
0"
0A
#1575000
1%
1"
1A
#1580000
b10011110 D
0%
0"
0A
#1585000
1%
1"
1A
#1590000
b10011111 D
0%
0"
0A
#1595000
1%
1"
1A
#1600000
b10100000 D
0%
0"
0A
#1605000
1%
1"
1A
#1610000
b10100001 D
0%
0"
0A
#1615000
1%
1"
1A
#1620000
b10100010 D
0%
0"
0A
#1625000
1%
1"
1A
#1630000
b10100011 D
0%
0"
0A
#1635000
1%
1"
1A
#1640000
b10100100 D
0%
0"
0A
#1645000
1%
1"
1A
#1650000
b10100101 D
0%
0"
0A
#1655000
1%
1"
1A
#1660000
b10100110 D
0%
0"
0A
#1665000
1%
1"
1A
#1670000
b10100111 D
0%
0"
0A
#1675000
1%
1"
1A
#1680000
b10101000 D
0%
0"
0A
#1685000
1%
1"
1A
#1690000
b10101001 D
0%
0"
0A
#1695000
1%
1"
1A
#1700000
b10101010 D
0%
0"
0A
#1705000
1%
1"
1A
#1710000
b10101011 D
0%
0"
0A
#1715000
1%
1"
1A
#1720000
b10101100 D
0%
0"
0A
#1725000
1%
1"
1A
#1730000
b10101101 D
0%
0"
0A
#1735000
1%
1"
1A
#1740000
b10101110 D
0%
0"
0A
#1745000
1%
1"
1A
#1750000
b10101111 D
0%
0"
0A
#1755000
1%
1"
1A
#1760000
b10110000 D
0%
0"
0A
#1765000
1%
1"
1A
#1770000
b10110001 D
0%
0"
0A
#1775000
1%
1"
1A
#1780000
b10110010 D
0%
0"
0A
#1785000
1%
1"
1A
#1790000
b10110011 D
0%
0"
0A
#1795000
1%
1"
1A
#1800000
b10110100 D
0%
0"
0A
#1805000
1%
1"
1A
#1810000
b10110101 D
0%
0"
0A
#1815000
1%
1"
1A
#1820000
b10110110 D
0%
0"
0A
#1825000
1%
1"
1A
#1830000
b10110111 D
0%
0"
0A
#1835000
1%
1"
1A
#1840000
b10111000 D
0%
0"
0A
#1845000
1%
1"
1A
#1850000
b10111001 D
0%
0"
0A
#1855000
1%
1"
1A
#1860000
b10111010 D
0%
0"
0A
#1865000
1%
1"
1A
#1870000
b10111011 D
0%
0"
0A
#1875000
1%
1"
1A
#1880000
b10111100 D
0%
0"
0A
#1885000
1%
1"
1A
#1890000
b10111101 D
0%
0"
0A
#1895000
1%
1"
1A
#1900000
b10111110 D
0%
0"
0A
#1905000
1%
1"
1A
#1910000
b10111111 D
0%
0"
0A
#1915000
1%
1"
1A
#1920000
b11000000 D
0%
0"
0A
#1925000
1%
1"
1A
#1930000
b11000001 D
0%
0"
0A
#1935000
1%
1"
1A
#1940000
b11000010 D
0%
0"
0A
#1945000
1%
1"
1A
#1950000
b11000011 D
0%
0"
0A
#1955000
1%
1"
1A
#1960000
b11000100 D
0%
0"
0A
#1965000
1%
1"
1A
#1970000
b11000101 D
0%
0"
0A
#1975000
1%
1"
1A
#1980000
b11000110 D
0%
0"
0A
#1985000
1%
1"
1A
#1990000
b11000111 D
0%
0"
0A
#1995000
1%
1"
1A
#2000000
b11001000 D
0%
0"
0A
#2005000
1%
1"
1A
#2010000
b11001001 D
0%
0"
0A
#2015000
1%
1"
1A
#2020000
b11001010 D
0%
0"
0A
#2025000
1%
1"
1A
#2030000
b11001011 D
0%
0"
0A
#2035000
1%
1"
1A
#2040000
b11001100 D
0%
0"
0A
#2045000
1%
1"
1A
#2050000
b11001101 D
0%
0"
0A
#2055000
1%
1"
1A
#2060000
b11001110 D
0%
0"
0A
#2065000
1%
1"
1A
#2070000
b11001111 D
0%
0"
0A
#2075000
1%
1"
1A
#2080000
b11010000 D
0%
0"
0A
#2085000
1%
1"
1A
#2090000
b11010001 D
0%
0"
0A
#2095000
1%
1"
1A
#2100000
b11010010 D
0%
0"
0A
#2105000
1%
1"
1A
#2110000
b11010011 D
0%
0"
0A
#2115000
1%
1"
1A
#2120000
b11010100 D
0%
0"
0A
#2125000
1%
1"
1A
#2130000
b11010101 D
0%
0"
0A
#2135000
1%
1"
1A
#2140000
b11010110 D
0%
0"
0A
#2145000
1%
1"
1A
#2150000
b11010111 D
0%
0"
0A
#2155000
1%
1"
1A
#2160000
b11011000 D
0%
0"
0A
#2165000
1%
1"
1A
#2170000
b11011001 D
0%
0"
0A
#2175000
1%
1"
1A
#2180000
b11011010 D
0%
0"
0A
#2185000
1%
1"
1A
#2190000
b11011011 D
0%
0"
0A
#2195000
1%
1"
1A
#2200000
b11011100 D
0%
0"
0A
#2205000
1%
1"
1A
#2210000
b11011101 D
0%
0"
0A
#2215000
1%
1"
1A
#2220000
b11011110 D
0%
0"
0A
#2225000
1%
1"
1A
#2230000
b11011111 D
0%
0"
0A
#2235000
1%
1"
1A
#2240000
b11100000 D
0%
0"
0A
#2245000
1%
1"
1A
#2250000
b11100001 D
0%
0"
0A
#2255000
1%
1"
1A
#2260000
b11100010 D
0%
0"
0A
#2265000
1%
1"
1A
#2270000
b11100011 D
0%
0"
0A
#2275000
1%
1"
1A
#2280000
b11100100 D
0%
0"
0A
#2285000
1%
1"
1A
#2290000
b11100101 D
0%
0"
0A
#2295000
1%
1"
1A
#2300000
b11100110 D
0%
0"
0A
#2305000
1%
1"
1A
#2310000
b11100111 D
0%
0"
0A
#2315000
1%
1"
1A
#2320000
b11101000 D
0%
0"
0A
#2325000
1%
1"
1A
#2330000
b11101001 D
0%
0"
0A
#2335000
1%
1"
1A
#2340000
b11101010 D
0%
0"
0A
#2345000
1%
1"
1A
#2350000
b11101011 D
0%
0"
0A
#2355000
1%
1"
1A
#2360000
b11101100 D
0%
0"
0A
#2365000
1%
1"
1A
#2370000
b11101101 D
0%
0"
0A
#2375000
1%
1"
1A
#2380000
b11101110 D
0%
0"
0A
#2385000
1%
1"
1A
#2390000
b11101111 D
0%
0"
0A
#2395000
1%
1"
1A
#2400000
b11110000 D
0%
0"
0A
#2405000
1%
1"
1A
#2410000
b11110001 D
0%
0"
0A
#2415000
1%
1"
1A
#2420000
b11110010 D
0%
0"
0A
#2425000
1%
1"
1A
#2430000
b11110011 D
0%
0"
0A
#2435000
1%
1"
1A
#2440000
b11110100 D
0%
0"
0A
#2445000
1%
1"
1A
#2450000
b11110101 D
0%
0"
0A
#2455000
1%
1"
1A
#2460000
b11110110 D
0%
0"
0A
#2465000
1%
1"
1A
#2470000
b11110111 D
0%
0"
0A
#2475000
1%
1"
1A
#2480000
b11111000 D
0%
0"
0A
#2485000
1%
1"
1A
#2490000
b11111001 D
0%
0"
0A
#2495000
1%
1"
1A
#2500000
b11111010 D
0%
0"
0A
#2505000
1%
1"
1A
#2510000
b11111011 D
0%
0"
0A
#2515000
1%
1"
1A
#2520000
b11111100 D
0%
0"
0A
#2525000
1%
1"
1A
#2530000
b11111101 D
0%
0"
0A
#2535000
1%
1"
1A
#2540000
b11111110 D
0%
0"
0A
#2545000
1%
1"
1A
#2550000
b11111111 D
0%
0"
0A
#2555000
1%
1"
1A
#2560000
b100000000 D
0%
0"
0A
#2565000
1%
1"
1A
#2570000
b100000001 D
0%
0"
0A
#2575000
1%
1"
1A
#2580000
b100000010 D
0%
0"
0A
#2585000
1%
1"
1A
#2590000
b100000011 D
0%
0"
0A
#2595000
1%
1"
1A
#2600000
b100000100 D
0%
0"
0A
#2605000
1%
1"
1A
#2610000
b100000101 D
0%
0"
0A
#2615000
1%
1"
1A
#2620000
b100000110 D
0%
0"
0A
#2625000
1%
1"
1A
#2630000
b100000111 D
0%
0"
0A
#2635000
1%
1"
1A
#2640000
b100001000 D
0%
0"
0A
#2645000
1%
1"
1A
#2650000
b100001001 D
0%
0"
0A
#2655000
1%
1"
1A
#2660000
b100001010 D
0%
0"
0A
#2665000
1%
1"
1A
#2670000
b100001011 D
0%
0"
0A
#2675000
1%
1"
1A
#2680000
b100001100 D
0%
0"
0A
#2685000
1%
1"
1A
#2690000
b100001101 D
0%
0"
0A
#2695000
1%
1"
1A
#2700000
b100001110 D
0%
0"
0A
#2705000
1%
1"
1A
#2710000
b100001111 D
0%
0"
0A
#2715000
1%
1"
1A
#2720000
b100010000 D
0%
0"
0A
#2725000
1%
1"
1A
#2730000
b100010001 D
0%
0"
0A
#2735000
1%
1"
1A
#2740000
b100010010 D
0%
0"
0A
#2745000
1%
1"
1A
#2750000
b100010011 D
0%
0"
0A
#2755000
1%
1"
1A
#2760000
b100010100 D
0%
0"
0A
#2765000
1%
1"
1A
#2770000
b100010101 D
0%
0"
0A
#2775000
1%
1"
1A
#2780000
b100010110 D
0%
0"
0A
#2785000
1%
1"
1A
#2790000
b100010111 D
0%
0"
0A
#2795000
1%
1"
1A
#2800000
b100011000 D
0%
0"
0A
#2805000
1%
1"
1A
#2810000
b100011001 D
0%
0"
0A
#2815000
1%
1"
1A
#2820000
b100011010 D
0%
0"
0A
#2825000
1%
1"
1A
#2830000
b100011011 D
0%
0"
0A
#2835000
1%
1"
1A
#2840000
b100011100 D
0%
0"
0A
#2845000
1%
1"
1A
#2850000
b100011101 D
0%
0"
0A
#2855000
1%
1"
1A
#2860000
b100011110 D
0%
0"
0A
#2865000
1%
1"
1A
#2870000
b100011111 D
0%
0"
0A
#2875000
1%
1"
1A
#2880000
b100100000 D
0%
0"
0A
#2885000
1%
1"
1A
#2890000
b100100001 D
0%
0"
0A
#2895000
1%
1"
1A
#2900000
b100100010 D
0%
0"
0A
#2905000
1%
1"
1A
#2910000
b100100011 D
0%
0"
0A
#2915000
1%
1"
1A
#2920000
b100100100 D
0%
0"
0A
#2925000
1%
1"
1A
#2930000
b100100101 D
0%
0"
0A
#2935000
1%
1"
1A
#2940000
b100100110 D
0%
0"
0A
#2945000
1%
1"
1A
#2950000
b100100111 D
0%
0"
0A
#2955000
1%
1"
1A
#2960000
b100101000 D
0%
0"
0A
#2965000
1%
1"
1A
#2970000
b100101001 D
0%
0"
0A
#2975000
1%
1"
1A
#2980000
b100101010 D
0%
0"
0A
#2985000
1%
1"
1A
#2990000
b100101011 D
0%
0"
0A
#2995000
1%
1"
1A
#3000000
b100101100 D
0%
0"
0A
#3005000
1%
1"
1A
#3010000
b100101101 D
0%
0"
0A
#3015000
1%
1"
1A
#3020000
b100101110 D
0%
0"
0A
#3025000
1%
1"
1A
#3030000
b100101111 D
0%
0"
0A
#3035000
1%
1"
1A
#3040000
b100110000 D
0%
0"
0A
#3045000
1%
1"
1A
#3050000
b100110001 D
0%
0"
0A
#3055000
1%
1"
1A
#3060000
b100110010 D
0%
0"
0A
#3065000
1%
1"
1A
#3070000
b100110011 D
0%
0"
0A
#3075000
1%
1"
1A
#3080000
b100110100 D
0%
0"
0A
#3085000
1%
1"
1A
#3090000
b100110101 D
0%
0"
0A
#3095000
1%
1"
1A
#3100000
b100110110 D
0%
0"
0A
#3105000
1%
1"
1A
#3110000
b100110111 D
0%
0"
0A
#3115000
1%
1"
1A
#3120000
b100111000 D
0%
0"
0A
#3125000
1%
1"
1A
#3130000
b100111001 D
0%
0"
0A
#3135000
1%
1"
1A
#3140000
b100111010 D
0%
0"
0A
#3145000
1%
1"
1A
#3150000
b100111011 D
0%
0"
0A
#3155000
1%
1"
1A
#3160000
b100111100 D
0%
0"
0A
#3165000
1%
1"
1A
#3170000
b100111101 D
0%
0"
0A
#3175000
1%
1"
1A
#3180000
b100111110 D
0%
0"
0A
#3185000
1%
1"
1A
#3190000
b100111111 D
0%
0"
0A
#3195000
1%
1"
1A
#3200000
b101000000 D
0%
0"
0A
#3205000
1%
1"
1A
#3210000
b101000001 D
0%
0"
0A
#3215000
1%
1"
1A
#3220000
b101000010 D
0%
0"
0A
#3225000
1%
1"
1A
#3230000
b101000011 D
0%
0"
0A
#3235000
1%
1"
1A
#3240000
b101000100 D
0%
0"
0A
#3245000
1%
1"
1A
#3250000
b101000101 D
0%
0"
0A
#3255000
1%
1"
1A
#3260000
b101000110 D
0%
0"
0A
#3265000
1%
1"
1A
#3270000
b101000111 D
0%
0"
0A
#3275000
1%
1"
1A
#3280000
b101001000 D
0%
0"
0A
#3285000
1%
1"
1A
#3290000
b101001001 D
0%
0"
0A
#3295000
1%
1"
1A
#3300000
b101001010 D
0%
0"
0A
#3305000
1%
1"
1A
#3310000
b101001011 D
0%
0"
0A
#3315000
1%
1"
1A
#3320000
b101001100 D
0%
0"
0A
#3325000
1%
1"
1A
#3330000
b101001101 D
0%
0"
0A
#3335000
1%
1"
1A
#3340000
b101001110 D
0%
0"
0A
#3345000
1%
1"
1A
#3350000
b101001111 D
0%
0"
0A
#3355000
1%
1"
1A
#3360000
b101010000 D
0%
0"
0A
#3365000
1%
1"
1A
#3370000
b101010001 D
0%
0"
0A
#3375000
1%
1"
1A
#3380000
b101010010 D
0%
0"
0A
#3385000
1%
1"
1A
#3390000
b101010011 D
0%
0"
0A
#3395000
1%
1"
1A
#3400000
b101010100 D
0%
0"
0A
#3405000
1%
1"
1A
#3410000
b101010101 D
0%
0"
0A
#3415000
1%
1"
1A
#3420000
b101010110 D
0%
0"
0A
#3425000
1%
1"
1A
#3430000
b101010111 D
0%
0"
0A
#3435000
1%
1"
1A
#3440000
b101011000 D
0%
0"
0A
#3445000
1%
1"
1A
#3450000
b101011001 D
0%
0"
0A
#3455000
1%
1"
1A
#3460000
b101011010 D
0%
0"
0A
#3465000
1%
1"
1A
#3470000
b101011011 D
0%
0"
0A
#3475000
1%
1"
1A
#3480000
b101011100 D
0%
0"
0A
#3485000
1%
1"
1A
#3490000
b101011101 D
0%
0"
0A
#3495000
1%
1"
1A
#3500000
b101011110 D
0%
0"
0A
#3505000
1%
1"
1A
#3510000
b101011111 D
0%
0"
0A
#3515000
1%
1"
1A
#3520000
b101100000 D
0%
0"
0A
#3525000
1%
1"
1A
#3530000
b101100001 D
0%
0"
0A
#3535000
1%
1"
1A
#3540000
b101100010 D
0%
0"
0A
#3545000
1%
1"
1A
#3550000
b101100011 D
0%
0"
0A
#3555000
1%
1"
1A
#3560000
b101100100 D
0%
0"
0A
#3565000
1%
1"
1A
#3570000
b101100101 D
0%
0"
0A
#3575000
1%
1"
1A
#3580000
b101100110 D
0%
0"
0A
#3585000
1%
1"
1A
#3590000
b101100111 D
0%
0"
0A
#3595000
1%
1"
1A
#3600000
b101101000 D
0%
0"
0A
#3605000
1%
1"
1A
#3610000
b101101001 D
0%
0"
0A
#3615000
1%
1"
1A
#3620000
b101101010 D
0%
0"
0A
#3625000
1%
1"
1A
#3630000
b101101011 D
0%
0"
0A
#3635000
1%
1"
1A
#3640000
b101101100 D
0%
0"
0A
#3645000
1%
1"
1A
#3650000
b101101101 D
0%
0"
0A
#3655000
1%
1"
1A
#3660000
b101101110 D
0%
0"
0A
#3665000
1%
1"
1A
#3670000
b101101111 D
0%
0"
0A
#3675000
1%
1"
1A
#3680000
b101110000 D
0%
0"
0A
#3685000
1%
1"
1A
#3690000
b101110001 D
0%
0"
0A
#3695000
1%
1"
1A
#3700000
b101110010 D
0%
0"
0A
#3705000
1%
1"
1A
#3710000
b101110011 D
0%
0"
0A
#3715000
1%
1"
1A
#3720000
b101110100 D
0%
0"
0A
#3725000
1%
1"
1A
#3730000
b101110101 D
0%
0"
0A
#3735000
1%
1"
1A
#3740000
b101110110 D
0%
0"
0A
#3745000
1%
1"
1A
#3750000
b101110111 D
0%
0"
0A
#3755000
1%
1"
1A
#3760000
b101111000 D
0%
0"
0A
#3765000
1%
1"
1A
#3770000
b101111001 D
0%
0"
0A
#3775000
1%
1"
1A
#3780000
b101111010 D
0%
0"
0A
#3785000
1%
1"
1A
#3790000
b101111011 D
0%
0"
0A
#3795000
1%
1"
1A
#3800000
b101111100 D
0%
0"
0A
#3805000
1%
1"
1A
#3810000
b101111101 D
0%
0"
0A
#3815000
1%
1"
1A
#3820000
b101111110 D
0%
0"
0A
#3825000
1%
1"
1A
#3830000
b101111111 D
0%
0"
0A
#3835000
1%
1"
1A
#3840000
b110000000 D
0%
0"
0A
#3845000
1%
1"
1A
#3850000
b110000001 D
0%
0"
0A
#3855000
1%
1"
1A
#3860000
b110000010 D
0%
0"
0A
#3865000
1%
1"
1A
#3870000
b110000011 D
0%
0"
0A
#3875000
1%
1"
1A
#3880000
b110000100 D
0%
0"
0A
#3885000
1%
1"
1A
#3890000
b110000101 D
0%
0"
0A
#3895000
1%
1"
1A
#3900000
b110000110 D
0%
0"
0A
#3905000
1%
1"
1A
#3910000
b110000111 D
0%
0"
0A
#3915000
1%
1"
1A
#3920000
b110001000 D
0%
0"
0A
#3925000
1%
1"
1A
#3930000
b110001001 D
0%
0"
0A
#3935000
1%
1"
1A
#3940000
b110001010 D
0%
0"
0A
